298364 535849 470
413550 860168 525
504171 970051 525
67927 471031 449
112353 69381 354
740056 543090 509
208965 611396 470
856425 244705 525
874316 957736 507
394340 729298 509
216174 228493 386
590023 249466 470
663404 705772 504
543368 132184 470
915379 525303 525
244457 401329 441
91969 49800 351
999291 24169 525
757130 850794 525
887016 945641 507
936314 61418 525
549935 628291 509
498013 518969 470
699045 764072 504
77332 750055 509
399318 20284 443
770975 28221 509
365154 200840 443
865765 689849 525
584987 56419 470
809082 522221 509
942369 459574 525
58952 366805 443
718734 239606 509
6383 730195 509
957690 283635 525
459998 517044 470
4917 436746 449
601464 71927 470
541262 887155 525
554090 210264 470
733521 725053 380
442395 381404 449
535331 870751 525
574171 790446 509
385674 617634 470
664305 880967 525
448602 411584 418
844687 112227 525
609331 317822 470
756744 446336 509
664577 127640 509
391680 632370 509
209659 767050 509
569018 865937 525
662062 946506 525
752091 157320 509
739195 694326 504
263007 364755 441
78539 926052 525
351185 402593 436
703238 78930 509
440066 140914 449
693593 235599 509
814823 629660 504
459888 410670 418
450361 713956 509
505278 920822 525
154926 463272 449
768949 378501 509
309070 881594 525
427037 129171 449
286303 191071 443
988076 23622 525
99034 450269 449
223414 893657 525
930950 433799 525
912891 547284 525
394970 746530 509
172999 917612 525
403018 712917 509
832616 266070 509
770798 10111 509
535114 349129 470
167964 995848 525
705147 81331 509
51579 364004 443
370256 682532 509
95543 302709 443
836768 190954 509
935294 94074 525
609472 156874 470
361703 563788 470
331409 783395 509
911066 158251 525
352097 458232 449
426621 952289 525
550992 306868 470
798987 15991 509
89259 976533 525
873982 877205 432
269603 471281 449
994974 281076 525
297631 994150 525
913664 274500 525
529393 955390 525
8164 884963 525
853118 826211 525
10197 255697 443
77768 556153 470
234639 915083 525
296721 751091 509
256396 424451 449
155419 789214 509
871593 686528 525
693656 927295 525
164693 408363 443
491870 57833 449
106308 732860 509
171753 131881 383
654384 371951 509
367024 862530 525
201741 117912 383
670040 652298 442
904302 713144 525
667146 983693 525
289321 316982 384
311248 717270 509
141806 733818 509
570197 635815 509
300905 221789 443
943026 314432 525
563386 846868 525
216486 381122 443
956659 745866 525
967779 626580 525
243469 885504 525
361805 906361 525
49126 460729 449
714836 691971 504
168524 529764 470
59065 940667 525
706507 412709 509
37705 81980 351
147334 89804 375
956354 108502 525
995987 663196 525
276670 745495 509
493881 179319 449
739700 796560 468
562132 997973 525
318495 252449 407
968218 837147 525
520863 56895 470
955880 827709 525
921044 302599 525
65903 569333 470
259022 78085 443
564893 319424 470
988791 836577 525
672921 174013 509
494741 507950 426
508389 783885 509
846449 83114 525
624254 966984 525
466066 955007 525
739994 57585 509
441376 485773 444
211368 520573 470
930441 663316 525
921397 416984 525
373455 344700 441
260240 621879 470
102123 341082 443
813821 541569 509
32015 682406 509
903735 59788 525
764159 36019 509
69942 43394 340
950170 235636 525
451115 153495 449
743940 7045 509
150551 621905 470
154928 868045 525
920726 617287 525
802825 99680 509
360981 390324 436
826360 205655 509
562402 649136 509
675091 548731 509
569003 20107 470
397554 876222 525
331319 768267 509
245710 447701 449
210322 41202 383
858586 267766 525
622150 77661 470
327332 281887 389
716227 999548 525
403498 827036 509
223482 868095 525
518439 48898 470
585179 743664 509
747288 384475 509
778552 21715 509
884661 69593 525
933455 428296 525
408870 746808 509
474991 582051 470
464930 901002 525
565848 2921 470
729204 552721 509
920091 480387 525
70986 602109 470
696779 587671 509
343089 115089 443
579032 353266 470
831331 727104 468
153872 767731 509
855784 572369 525
514547 738981 509
16698 221415 386
315377 356346 441
699778 425090 509
103956 338287 443
742566 51048 509
529013 543387 408
250314 352508 441
118858 511782 449
597106 736309 509
962772 85039 525
75662 112860 354
912976 459594 525
35980 398996 443
839344 869374 419
708746 24457 509
296322 936884 525
585542 669988 509
363877 239952 441
73222 525647 470
789350 517637 509
690390 138410 509
758338 303211 509
575502 915388 525
11082 587009 470
691141 784865 504
176375 88465 383
12318 837927 525
108932 602302 470
55684 46773 340
247759 504728 449
836089 941690 525
766287 110386 509
701372 615066 509
591390 345942 470
245875 726388 509
498567 282527 449
409909 646873 509
976727 661689 525
130109 722924 509
833983 191014 509
911847 943518 507
904403 790398 525
96483 712215 509
243735 434404 449
330626 66219 443
325872 392419 441
300895 815431 509
103533 23882 351
640180 930857 525
267666 206620 443
755148 808218 468
210028 134024 383
123770 578467 470
74859 507748 449
140801 863292 525
752684 656493 504
705942 825626 468
764709 748625 424
378173 760417 509
210822 825359 509
500887 69364 449
492970 467094 426
225111 531033 470
639138 384276 509
549830 374013 470
422510 37843 449
75761 398413 443
966945 79644 525
904083 541605 525
568173 406720 470
962604 365755 525
662979 893824 525
154220 309358 443
736874 351905 509
721515 627325 504
161123 894876 525
796806 51523 509
47775 581353 470
693888 199282 509
30865 447024 449
671309 805734 504
824968 667166 504
890547 573410 525
994241 193435 525
820094 57993 509
570295 915373 525
758182 760322 362
289082 262766 407
570543 187926 470
178951 55317 383
275298 527032 470
626938 965799 525
65748 301747 443
91490 573828 470
800367 536114 509
987032 770434 525
234895 5708 443
348223 825001 509
156740 451613 449
821182 711449 468
307568 961996 525
629745 123950 509
562412 947756 525
941044 654989 525
429656 218713 449
392603 937361 525
51721 48110 309
252994 728461 509
366816 474487 449
356393 696847 509
582632 794421 509
608 394215 443
499270 407775 449
4902 349427 443
930534 375434 525
220241 293021 443
128003 850070 525
302888 184988 443
814101 98430 509
299419 152805 443
203245 253060 443
503627 358499 449
880377 148590 525
930297 71338 525
680827 320260 509
783157 210731 509
44549 900378 525
540305 599563 452
609232 748954 509
273244 741239 509
778017 682625 504
701650 513282 509
578059 710600 509
162687 989762 525
872126 883182 432
479060 212859 449
449998 873579 525
393441 992919 525
174824 572539 470
879634 813937 525
342281 763045 509
144938 311696 443
178843 966360 525
323696 478944 449
306161 659709 509
605378 469754 470
13047 895769 525
920837 499221 525
335212 635730 509
647885 215726 509
261771 911075 525
264502 857661 525
963001 950397 414
60921 486104 449
363486 817257 509
172419 624087 470
576013 717876 509
906886 122515 525
475914 647421 509
981716 439437 525
816259 939429 525
960986 381535 525
79086 384797 443
849890 112253 525
138537 441636 449
73998 517256 470
20986 922366 525
484052 175577 449
613384 291646 470
908576 262244 525
512475 311475 470
338138 695328 509
975618 360835 525
248565 652177 509
51997 934710 525
949360 63470 525
162601 670487 509
40980 310382 443
840516 812965 525
456987 870622 525
965463 563574 525
909945 889810 445
922670 45980 525
612752 66876 470
139183 205322 383
175314 257231 443
737407 285747 509
547004 272636 470
415064 67401 449
217003 986784 525
136646 246991 443
649678 479099 509
176448 532977 470
821999 432579 509
674704 162218 509
761352 127186 509
965697 747036 525
213498 219031 386
674196 261955 509
657914 815375 504
497396 124767 449
681527 359452 509
426999 492687 444
152814 426878 449
297287 78942 443
779430 846487 525
456726 400700 449
420144 663573 509
444554 586095 470
512839 138690 470
572742 531531 452
770942 14146 509
656525 923191 525
689153 394926 509
74722 511587 449
417122 616377 470
255756 808653 509
78134 198982 383
890396 556872 525
778270 847693 525
573578 188741 470
718679 313174 509
370812 727685 509
536782 976229 525
198853 463272 449
776240 53885 509
111605 678985 509
598420 140238 470
679459 625066 509
178430 717599 509
18865 417484 449
420709 341229 449
323209 567952 470
784260 643903 504
404455 61011 443
529714 865447 525
117518 638564 509
594904 810377 509
57546 232793 443
634316 202673 509
266655 613031 470
340847 824552 509
829507 397367 509
26530 418244 449
998822 445238 525
203935 902795 525
610976 88116 470
671851 537981 509
811680 33980 509
475155 921389 525
607081 826769 509
352169 164434 443
689920 731531 504
765533 925225 525
537619 94556 470
364586 325450 441
107732 185687 383
233527 781726 509
45029 155269 375
614976 800375 509
607666 721181 509
209698 677580 509
809393 236867 509
119986 770442 509
12781 462525 449
12662 636463 509
581664 478322 470
313251 729549 509
682298 373601 509
142960 416053 449
700540 151908 509
423198 577633 470
437166 117924 449
264648 555256 470
179951 177732 347
602359 211737 470
272064 286986 389
696122 339262 509
942179 974574 458
