959103 440156 525
781869 203788 509
24271 722349 509
821436 550690 509
681296 742447 504
287016 371420 441
603106 586797 403
872520 997581 507
762099 283654 509
500533 783689 509
487108 747984 509
258751 136500 443
890977 273722 525
600037 552716 434
236058 590054 470
826813 581288 509
420907 589185 470
190325 354296 443
657135 693249 442
640901 412797 509
568375 195917 470
44588 584535 470
647995 459678 509
629318 462339 509
606703 979310 525
380016 959270 525
965554 835683 525
818711 974939 525
978595 227263 525
1236 659742 509
862047 646322 525
132445 2318 354
540395 336433 470
819909 406732 509
684926 855182 525
993226 658459 525
672520 850131 525
599639 58336 470
377466 233943 441
369135 924710 525
944938 346934 525
628900 99540 509
755396 348556 509
270753 198276 443
969342 542484 525
790891 738336 468
706920 434103 509
356220 590573 470
586444 166043 470
786319 328682 509
815301 888304 525
320901 121574 443
47535 160184 383
686177 308462 509
562382 749948 509
87366 687474 509
490977 614673 470
852816 248616 525
976519 355542 525
302265 893111 525
312499 778104 509
732763 739088 424
399042 921259 525
956458 785563 525
800503 679261 504
486994 784571 509
78234 572435 470
627752 525095 509
904230 864154 445
784358 418977 509
75348 725169 509
209330 455827 449
246614 781283 509
431855 360054 449
19793 745326 509
294171 216610 443
546455 790785 509
446800 386988 449
684444 328094 509
663511 726284 504
866876 232507 525
511977 196416 470
873323 600334 525
62785 80839 351
458615 216142 449
629135 982497 525
710795 771582 468
423163 907944 525
640185 812629 504
269859 321905 407
585011 250646 470
600092 893336 525
157912 745535 509
417876 752799 509
304490 240711 407
534176 920435 525
831572 347083 509
359265 706039 509
473533 793229 509
310244 231690 407
852033 619870 525
775905 478047 509
382327 859988 525
613160 88574 470
757192 719524 424
725041 663772 504
106128 568071 470
790934 781984 406
350335 198655 443
199680 973847 525
653896 61168 509
246154 613213 470
756027 457765 509
335357 268017 407
515261 749072 509
72144 37427 340
570712 752393 509
402395 64883 443
676959 346135 509
292187 513499 470
821474 529886 509
406129 835938 509
275670 146186 443
323770 12274 443
820450 747147 468
387819 139983 443
922055 603726 525
984386 91952 525
715671 325991 509
857296 341536 525
149179 277188 443
250663 393458 441
408843 11571 443
58168 36054 340
131376 351321 443
823868 15757 509
272041 900164 525
399759 903483 525
851983 598382 525
492730 528463 470
516561 986986 525
244378 860121 525
271190 192515 443
101221 117608 354
386407 415567 449
523827 337867 470
193331 517381 470
987508 100021 525
748381 169689 509
202416 741712 509
954445 285144 525
227071 525713 470
269111 868812 525
608929 269999 470
261944 197283 443
674269 155243 509
762945 95417 509
669159 956760 525
752824 766692 424
434403 844399 525
21710 204006 383
284289 789304 509
893386 353340 525
905118 559969 525
688459 18316 509
796295 631560 504
587605 811495 509
661631 116465 509
938879 828822 525
484432 638570 509
876741 444030 525
437383 973765 525
745682 348777 509
57062 553886 470
993151 315155 525
939999 946986 383
580681 515691 452
609823 141690 470
375754 347578 410
687370 428912 509
695953 940664 525
960758 591657 525
659008 339410 509
642248 518390 509
599351 141516 470
587456 165308 470
215860 297078 443
925246 424953 525
129078 895764 525
325286 789576 509
878611 871039 432
146084 433624 449
681614 681209 336
679408 858985 525
609424 85264 470
166100 609076 470
419805 311984 449
902528 364132 525
63708 327328 443
39378 523237 470
